INDEX VERSION 1.127+/home/amol/Music/AmolRRRR/JavaProjects/AB-CucumberWithBDD/.metadata/.plugins/org.eclipse.jdt.core
3855563071.index
120211678.index
2798901185.index
2948194388.index
3198891575.index
3319242296.index
527624335.index
1324431592.index
1340195918.index
1907856329.index
2205165916.index
513188955.index
1034761788.index
3214207201.index
2224108044.index
2509999896.index
1072690073.index
621652456.index
2841451250.index
2233963263.index
46282419.index
2689921071.index
2642013426.index
4009707972.index
2301833735.index
1807964002.index
149627196.index
742522455.index
3218550209.index
3888198363.index
3132619814.index
4246368236.index
2066489604.index
1740460533.index
3721837726.index
1883614455.index
2468634461.index
3215602963.index
1225850120.index
2606175493.index
414081637.index
915491504.index
2956123929.index
795036243.index
3445836136.index
4197007084.index
2982035129.index
340365521.index
1932949083.index
1724673204.index
22123710.index
3490786555.index
1589813331.index
474415364.index
586174785.index
558316097.index
2428579779.index
75008466.index
210891259.index
318376288.index
1970188836.index
3885805113.index
2771403403.index
1242988590.index
72150626.index
3295022118.index
2386231434.index
3122141385.index
2508069574.index
1310186674.index
3640039993.index
3607006966.index
1520819366.index
1165362801.index
2884166407.index
1215288476.index
941458227.index
2338051225.index
3198962530.index
3935747090.index
1913109094.index
2630498905.index
767454079.index
4237388583.index
3591763208.index
